quarto-input1e20992c
…
Second, the class-level metrics. These describe all patches belonging to a specified class.

landscapemetrics::list_lsm(level="class") %>% print(n = 12)

# A tibble: 55 × 5
   metric    name                          type              level function_name
   <chr>     <chr>                         <chr>             <chr> <chr>        
 1 ai        aggregation index             aggregation metr… class lsm_c_ai     
 2 area_cv   patch area                    area and edge me… class lsm_c_area_cv
 3 area_mn   patch area                    area and edge me… class lsm_c_area_mn
 4 area_sd   patch area                    area and edge me… class lsm_c_area_sd
 5 ca        total (class) area            area and edge me… class lsm_c_ca     
 6 cai_cv    core area index               core area metric  class lsm_c_cai_cv 
 7 cai_mn    core area index               core area metric  class lsm_c_cai_mn 
 8 cai_sd    core area index               core area metric  class lsm_c_cai_sd 
 9 circle_cv related circumscribing circle shape metric      class lsm_c_circle…
10 circle_mn related circumscribing circle shape metric      class lsm_c_circle…
11 circle_sd related circumscribing circle shape metric      class lsm_c_circle…
12 clumpy    clumpiness index              aggregation metr… class lsm_c_clumpy 
# ℹ 43 more rows

Finally, the landscape-level metrics. These describe the characteristics of the entire landscape, i.e., the assemblage of classes and patches.

landscapemetrics::list_lsm(level="landscape") %>% print(n = 12)

# A tibble: 66 × 5
   metric    name                          type              level function_name
   <chr>     <chr>                         <chr>             <chr> <chr>        
 1 ai        aggregation index             aggregation metr… land… lsm_l_ai     
 2 area_cv   patch area                    area and edge me… land… lsm_l_area_cv
 3 area_mn   patch area                    area and edge me… land… lsm_l_area_mn
 4 area_sd   patch area                    area and edge me… land… lsm_l_area_sd
 5 cai_cv    core area index               core area metric  land… lsm_l_cai_cv 
 6 cai_mn    core area index               core area metric  land… lsm_l_cai_mn 
 7 cai_sd    core area index               core area metric  land… lsm_l_cai_sd 
 8 circle_cv related circumscribing circle shape metric      land… lsm_l_circle…
 9 circle_mn related circumscribing circle shape metric      land… lsm_l_circle…
10 circle_sd related circumscribing circle shape metric      land… lsm_l_circle…
11 cohesion  patch cohesion index          aggregation metr… land… lsm_l_cohesi…
12 condent   conditional entropy           complexity metric land… lsm_l_condent
# ℹ 54 more rows
…
