quarto-input1351b1be
…
 0% 12% 24% 36% 48% 60% 72% 84% 96% 
  9   9   9   9   9  18  18  27  72 

Now the cores:

# each patch
head(ncore.300 <- calculate_lsm(gn.300, what="lsm_p_ncore"))

# summarize by map unit
ncore.300.summary <- ncore.300 %>% group_by(class) %>%
  summarize(max_cores = max(value)) %>%
  arrange(class)
print(ncore.20.summary)

# A tibble: 217 × 2
    class max_cores
    <int>     <dbl>
 1 295575        18
 2 295576         2
 3 295577         4
 4 295578         1
 5 295579         4
 6 295580         3
 7 295581        10
 8 295582        12
 9 295583         1
10 295584        12
# ℹ 207 more rows

print(ncore.100.summary)

# A tibble: 214 × 2
    class max_cores
    <int>     <dbl>
 1 295575         2
 2 295576         1
 3 295577         1
 4 295578         0
 5 295579         3
 6 295580         0
 7 295581         2
 8 295582         9
 9 295583         1
10 295584         3
# ℹ 204 more rows

print(ncore.300.summary)

# A tibble: 173 × 2
    class max_cores
    <int>     <dbl>
 1 295575         0
 2 295576         0
 3 295577         0
 4 295578         0
 5 295579         1
 6 295581         0
 7 295582         2
 8 295583         0
 9 295584         0
10 295585         0
# ℹ 163 more rows
…
     0%     12%     24%     36%     48%     60%     72%     84%     96% 
 0.0400  0.5600  1.0000  1.5600  2.3232  3.4400  5.4800  9.4400 24.7600 

Many patches increase in size by the aggregation, but about 60% remain at the original size – these were of small classes that did not have multiple map units.

Core areas:

ncore.g <- calculate_lsm(gn.20.g, what="lsm_p_ncore")
ncore.g.summary <- ncore.g %>% group_by(class) %>%
  summarize(max_cores = max(value)) %>%
  arrange(class)
print(ncore.g.summary)

# A tibble: 77 × 2
    class max_cores
    <int>     <dbl>
 1 295575        21
 2 295576         6
 3 295578        12
 4 295586        10
 5 295587         2
 6 295589         3
 7 295590         5
 8 295594         1
 9 295597         8
10 295598        38
# ℹ 67 more rows
…
